TH1:

3 3 30



if b and a not enough


TH2:

3 3 8

cacbcacbccbcca

if 


TH3:

3 3 3

cbcabcaba


rai deu

chen giua 2

	neu less, goi A, quay lai B2
	neu more, rai 2 cuoi
chen giua 1 (chen giua C)
	neu less, goi A, quay lai B3
	neu more, impossible
goi A, chen giua C
chen giua b

3 3 30

	x=30-3-3=24
	k=12-30= -18

3 3 8
	x=8-3-3=2
	k=2*6-8=4
ccbccbcbcacaca


4 5 6
	x=3
	k=3
bbcbbcbacacacac

abcabcabcbcbcac

abcabcabcbcbcac

abcabcabcabcbc

2 5 6
	x=1
	k=5


5 5 5
	x=5
	k=0

abcabc

2 3 6
	x=1
	k=4
ccacacbcbcb

0 3 6
	x=3
	k=0
ccbccbccb

0 0 6
	x=6
	k=-6
4 6 10
	x=0
	k=10

ccbccbccaccac
2 2 9
	x=5
	k=-1





if c>b+a
	x*2+k =c
	x+k =a+b
	x=c-a-b
	k=2(a+b)-c
if c<b+a
	x*2 +k =(a+b)
	x+k = c
	x= (a+b) -c
	k=2c -(a+b)

		